{
	"baron": {
		"message": "猫の恩返し",
		"description": "Regional title of ghibli.jp/works/baron"
	},
	"chihiro": {
		"message": "千と千尋の神隠し",
		"description": "Regional title of ghibli.jp/works/chihiro"
	},
	"ged": {
		"message": "ゲド戦記",
		"description": "Regional title of ghibli.jp/works/ged"
	},
	"ghiblies": {
		"message": "ギブリーズ episode2",
		"description": "Regional title of ghibli.jp/works/ghiblies"
	},
	"howl": {
		"message": "ハウルの動く城",
		"description": "Regional title of ghibli.jp/works/howl"
	},
	"kaguyahime": {
		"message": "かぐや姫の物語",
		"description": "Regional title of ghibli.jp/works/kaguyahime"
	},
	"karigurashi": {
		"message": "借りぐらしのアリエッティ",
		"description": "Regional title of ghibli.jp/works/karigurashi"
	},
	"kazetachinu": {
		"message": "風立ちぬ",
		"description": "Regional title of ghibli.jp/works/kazetachinu"
	},
	"kokurikozaka": {
		"message": "コクリコ坂から",
		"description": "Regional title of ghibli.jp/works/kokurikozaka"
	},
	"laputa": {
		"message": "天空の城ラピュタ",
		"description": "Regional title of ghibli.jp/works/laputa"
	},
	"majo": {
		"message": "魔女の宅急便",
		"description": "Regional title of ghibli.jp/works/majo"
	},
	"marnie": {
		"message": "思い出のマーニー",
		"description": "Regional title of ghibli.jp/works/marnie"
	},
	"mimi": {
		"message": "耳をすませば",
		"description": "Regional title of ghibli.jp/works/mimi"
	},
	"mononoke": {
		"message": "もののけ姫",
		"description": "Regional title of ghibli.jp/works/mononoke"
	},
	"nausicaa": {
		"message": "風の谷のナウシカ",
		"description":"Regional title of ghibli.jp/works/nausicaa"
	},
	"omoide": {
		"message": "おもひでぽろぽろ",
		"description":"Regional title of ghibli.jp/works/omoide"
	},
	"onyourmark": {
		"message": "On Your Mark",
		"description": "Regional title of ghibli.jp/works/onyourmark"
	},
	"ponyo": {
		"message": "崖の上のポニョ",
		"description": "Regional title of ghibli.jp/works/ponyo"
	},
	"porco": {
		"message": "紅の豚",
		"description": "Regional title of ghibli.jp/works/porco"
	},
	"redturtle": {
		"message": "レッドタートル ある島の物語",
		"description": "Regional title of ghibli.jp/works/red-turtle"
	},
	"tanuki": {
		"message": "平成狸合戦ぽんぽこ",
		"description": "Regional title of ghibli.jp/works/tanuki"
	},
	"totoro": {
		"message": "となりのトトロ",
		"description": "Regional title of ghibli.jp/works/totoro"
	},
	"umi": {
		"message": "海がきこえる",
		"description": "Regional title of ghibli.jp/works/umi"
	},
	"yamada": {
		"message": "ホーホケキョとなりの山田くん",
		"description": "Regional title of ghibli.jp/works/yamada"
	}
}